{
  "photos": {
    "page": 1,
    "pages": 50,
    "perpage": 20,
    "total": 999,
    "photo": [
      {
        "id": "52191358602",
        "owner": "27423801@N04",
        "secret": "5586d30a64",
        "server": "65535",
        "farm": 66,
        "title": "Grad Dinner.",
        "ispublic": 1,
        "isfriend": 0,
        "isfamily": 0
      },
      {
        "id": "52191359307",
        "owner": "21153881@N05",
        "secret": "3d81e448b8",
        "server": "65535",
        "farm": 66,
        "title": "Capitol Kempinski Sg 3-4 Jul 2022",
        "ispublic": 1,
        "isfriend": 0,
        "isfamily": 0
      },
      {
        "id": "52191359782",
        "owner": "35702024@N00",
        "secret": "469dfdd762",
        "server": "65535",
        "farm": 66,
        "title": "",
        "ispublic": 1,
        "isfriend": 0,
        "isfamily": 0
      },
      {
        "id": "52191359877",
        "owner": "146880315@N07",
        "secret": "649ffb50b4",
        "server": "65535",
        "farm": 66,
        "title": "2022-07-02 Schnuppertag-12",
        "ispublic": 1,
        "isfriend": 0,
        "isfamily": 0
      },
      {
        "id": "52192368846",
        "owner": "183080199@N08",
        "secret": "1b55023593",
        "server": "65535",
        "farm": 66,
        "title": "[Group 0]-DSC01852_DxO_DSC01853_DxO-2 images_Nik_DxO",
        "ispublic": 1,
        "isfriend": 0,
        "isfamily": 0
      },
      {
        "id": "52192369841",
        "owner": "195669710@N07",
        "secret": "5c57e01c2b",
        "server": "65535",
        "farm": 66,
        "title": "EpicPen_NKkbU6RTU1",
        "ispublic": 1,
        "isfriend": 0,
        "isfamily": 0
      },
      {
        "id": "52192370411",
        "owner": "193561110@N04",
        "secret": "2761bce504",
        "server": "65535",
        "farm": 66,
        "title": "Marketing von Vereinen: Medienagentur beauftragen?",
        "ispublic": 1,
        "isfriend": 0,
        "isfamily": 0
      },
      {
        "id": "52192370846",
        "owner": "150583970@N07",
        "secret": "1d9dbdc2bc",
        "server": "65535",
        "farm": 66,
        "title": "Sea salt",
        "ispublic": 1,
        "isfriend": 0,
        "isfamily": 0
      },
      {
        "id": "52192384303",
        "owner": "195639035@N02",
        "secret": "1fbd15c9ec",
        "server": "65535",
        "farm": 66,
        "title": "60046 arrives at Burrs Country Park for Heywood",
        "ispublic": 1,
        "isfriend": 0,
        "isfamily": 0
      },
      {
        "id": "52192386408",
        "owner": "190622906@N05",
        "secret": "ba49edc992",
        "server": "65535",
        "farm": 66,
        "title": "Meguiars Quik Clay Starter Kit (50g Clay/473ml Quik Detailer)",
        "ispublic": 1,
        "isfriend": 0,
        "isfamily": 0
      },
      {
        "id": "52192629309",
        "owner": "132447713@N07",
        "secret": "10fda870ce",
        "server": "65535",
        "farm": 66,
        "title": "DSC_6348.jpg",
        "ispublic": 1,
        "isfriend": 0,
        "isfamily": 0
      },
      {
        "id": "52192629614",
        "owner": "183016314@N06",
        "secret": "413b947e59",
        "server": "65535",
        "farm": 66,
        "title": "Path around the edge of Capileira.",
        "ispublic": 1,
        "isfriend": 0,
        "isfamily": 0
      },
      {
        "id": "52192630984",
        "owner": "56818545@N04",
        "secret": "12d2793cfa",
        "server": "65535",
        "farm": 66,
        "title": "",
        "ispublic": 1,
        "isfriend": 0,
        "isfamily": 0
      },
      {
        "id": "52192631284",
        "owner": "195591757@N03",
        "secret": "a7a16e6f3f",
        "server": "65535",
        "farm": 66,
        "title": "2022-07-04_12-30-49",
        "ispublic": 1,
        "isfriend": 0,
        "isfamily": 0
      },
      {
        "id": "52192631659",
        "owner": "27844439@N05",
        "secret": "a03e8ee634",
        "server": "65535",
        "farm": 66,
        "title": "C51O0690",
        "ispublic": 1,
        "isfriend": 0,
        "isfamily": 0
      },
      {
        "id": "52192859470",
        "owner": "85597199@N00",
        "secret": "7e8d70b775",
        "server": "65535",
        "farm": 66,
        "title": "20220702_124427",
        "ispublic": 1,
        "isfriend": 0,
        "isfamily": 0
      },
      {
        "id": "52192859955",
        "owner": "192018204@N06",
        "secret": "72b65514f3",
        "server": "65535",
        "farm": 66,
        "title": "Greece",
        "ispublic": 1,
        "isfriend": 0,
        "isfamily": 0
      },
      {
        "id": "52192860060",
        "owner": "156577630@N05",
        "secret": "7ffde19de8",
        "server": "65535",
        "farm": 66,
        "title": "Trevally and Old Wives",
        "ispublic": 1,
        "isfriend": 0,
        "isfamily": 0
      },
      {
        "id": "52192860220",
        "owner": "195968816@N03",
        "secret": "90b21fabbb",
        "server": "65535",
        "farm": 66,
        "title": "biển",
        "ispublic": 1,
        "isfriend": 0,
        "isfamily": 0
      }
    ]
  },
  "stat": "ok"
}
